MVA Case study in R: An outbreak of gastroenteritis in Stegen, Germany
…
and

https://www.rstudio.com/resources/cheatsheets/

dplyr also uses the pipe function %>% meaning you can join many functions in a row which is easy to read. The pipe takes the output of the previous function (a data frame) and inserts it as the first argument to the next function.

Here are some examples of using these functions

Select a variable

select(tira.data,
       age, sex)

## # A tibble: 291 x 2
##      age sex  
##    <dbl> <fct>
##  1   18. 1    
##  2   57. 0    
##  3   56. 1    
##  4   17. 0    
##  5   19. 1    
##  6   16. 0    
##  7   19. 0    
##  8   19. 0    
##  9   40. 1    
## 10   53. 0    
## # ... with 281 more rows

This is the same using the pipe %>%

tira.data %>% select(age, sex)

## # A tibble: 291 x 2
##      age sex  
##    <dbl> <fct>
##  1   18. 1    
##  2   57. 0    
##  3   56. 1    
##  4   17. 0    
##  5   19. 1    
##  6   16. 0    
##  7   19. 0    
##  8   19. 0    
##  9   40. 1    
## 10   53. 0    
## # ... with 281 more rows

Filter on a condition

tira.data %>% 
  select(age, sex) %>% 
  filter(sex ==  "0")

## # A tibble: 139 x 2
##      age sex  
##    <dbl> <fct>
##  1   57. 0    
##  2   17. 0    
##  3   16. 0    
##  4   19. 0    
##  5   19. 0    
##  6   53. 0    
##  7   23. 0    
##  8   17. 0    
##  9   15. 0    
## 10   19. 0    
## # ... with 129 more rows

Mutate a new variable

tira.data %>% 
  select(age, sex) %>% 
  mutate(over_30 = if_else(age >30, TRUE, FALSE))

## # A tibble: 291 x 3
##      age sex   over_30
##    <dbl> <fct> <lgl>  
##  1   18. 1     FALSE  
##  2   57. 0     TRUE   
##  3   56. 1     TRUE   
##  4   17. 0     FALSE  
##  5   19. 1     FALSE  
##  6   16. 0     FALSE  
##  7   19. 0     FALSE  
##  8   19. 0     FALSE  
##  9   40. 1     TRUE   
## 10   53. 0     TRUE   
## # ... with 281 more rows
…
tira.data %>% count(sex)

## # A tibble: 2 x 2
##   sex       n
##   <fct> <int>
## 1 0       139
## 2 1       152

Recode the data

This can be done with recode(), if_else(), or case_when().

tira.data %>% mutate(ill = recode(ill, "1" = "Sick"))

## # A tibble: 291 x 21
##    uniquekey ill   dateonset  sex     age tira  tportion wmousse dmousse
##    <chr>     <fct> <date>     <fct> <dbl> <fct> <fct>    <fct>   <fct>  
##  1 210       Sick  1998-06-27 1       18. 1     3        0       1      
##  2 12        Sick  1998-06-27 0       57. 1     1        0       1      
##  3 288       Sick  1998-06-27 1       56. 0     0        0       0      
##  4 186       Sick  1998-06-27 0       17. 1     1        1       0      
##  5 20        Sick  1998-06-27 1       19. 1     2        0       0      
##  6 148       Sick  1998-06-27 0       16. 1     2        1       1      
##  7 201       Sick  1998-06-27 0       19. 1     3        0       1      
##  8 106       Sick  1998-06-27 0       19. 1     2        1       1      
##  9 272       Sick  1998-06-27 1       40. 1     2        1       1      
## 10 50        Sick  1998-06-27 0       53. 1     1        1       1      
## # ... with 281 more rows, and 12 more variables: mousse <fct>,
## #   mportion <fct>, beer <fct>, redjelly <fct>, fruitsalad <fct>,
## #   tomato <fct>, mince <fct>, salmon <fct>, horseradish <fct>,
## #   chickenwin <fct>, roastbeef <fct>, pork <fct>

tira.data %>% 
  select(sex) %>% 
  mutate(sex2 = ifelse(sex == 1, "male", "female"))

## # A tibble: 291 x 2
##    sex   sex2  
##    <fct> <chr> 
##  1 1     male  
##  2 0     female
##  3 1     male  
##  4 0     female
##  5 1     male  
##  6 0     female
##  7 0     female
##  8 0     female
##  9 1     male  
## 10 0     female
## # ... with 281 more rows

tira.data %>% 
  select(age) %>%
  mutate(age_group = 
  case_when(age < 18 ~ "child",
            age >= 18 ~ "adult")
)

## # A tibble: 291 x 2
##      age age_group
##    <dbl> <chr>    
##  1   18. adult    
##  2   57. adult    
##  3   56. adult    
##  4   17. child    
##  5   19. adult    
##  6   16. child    
##  7   19. adult    
##  8   19. adult    
##  9   40. adult    
## 10   53. adult    
## # ... with 281 more rows
…
You can write a plot to disk using ggsave() and specifying a file name and graphics device

ggsave("age_cases.jpeg", age_cases, device = "jpeg")

## Saving 7 x 5 in image

## Warning: Removed 3 rows containing non-finite values (stat_bin).

If we believe that there are two identifiable age groups, then we can create a new age group variable using one of the following approaches:

# by using if_else (similar to Excel if statements)
tira.data <- tira.data %>% mutate(agegroup = if_else(age >= 30, "1", "0"))
tira.data %>% select(age, agegroup)

## # A tibble: 291 x 2
##      age agegroup
##    <dbl> <chr>   
##  1   18. 0       
##  2   57. 1       
##  3   56. 1       
##  4   17. 0       
##  5   19. 0       
##  6   16. 0       
##  7   19. 0       
##  8   19. 0       
##  9   40. 1       
## 10   53. 1       
## # ... with 281 more rows
…
# Recode 3 portions of tportion as 2 portions
# Make a new variable called tportion2 that has the same values as tportion

tira.data <- tira.data %>% mutate(tportion2 = recode(tportion, "3" = "2"))
tira.data %>% select(tportion, tportion2)

## # A tibble: 291 x 2
##    tportion tportion2
##    <fct>    <fct>    
##  1 3        2        
##  2 1        1        
##  3 0        0        
##  4 1        1        
##  5 2        2        
##  6 2        2        
##  7 3        2        
##  8 2        2        
##  9 2        2        
## 10 1        1        
## # ... with 281 more rows
…
