MVA Case study Linear Regression in R: Spanish Sentinel surveillance system Factors associated with HIV infection in Spain
…
and

https://www.rstudio.com/resources/cheatsheets/

dplyr also uses the pipe function %>% meaning you can join many functions in a row which is easy to read. The pipe takes the output of the previous function (a data frame) and inserts it as the first argument to the next function.

Here are some examples of using these functions

Select a variable

select(hiv.data,
       age, sex)

## # A tibble: 21,616 x 2
##      age sex  
##    <dbl> <chr>
##  1   34. 1    
##  2   30. 1    
##  3   32. 1    
##  4   27. 1    
##  5   36. 1    
##  6   23. 1    
##  7   39. 1    
##  8   28. 1    
##  9   28. 1    
## 10   23. 1    
## # ... with 21,606 more rows

This is the same using the pipe %>%

hiv.data %>% select(age, sex)

## # A tibble: 21,616 x 2
##      age sex  
##    <dbl> <chr>
##  1   34. 1    
##  2   30. 1    
##  3   32. 1    
##  4   27. 1    
##  5   36. 1    
##  6   23. 1    
##  7   39. 1    
##  8   28. 1    
##  9   28. 1    
## 10   23. 1    
## # ... with 21,606 more rows

Filter on a condition

hiv.data %>% 
  select(age, sex) %>% 
  filter(sex ==  "0")

## # A tibble: 8,999 x 2
##      age sex  
##    <dbl> <chr>
##  1   44. 0    
##  2   35. 0    
##  3   35. 0    
##  4   18. 0    
##  5   51. 0    
##  6   40. 0    
##  7   22. 0    
##  8   29. 0    
##  9   34. 0    
## 10   38. 0    
## # ... with 8,989 more rows

Mutate a new variable

hiv.data %>% 
  select(age, sex) %>% 
  mutate(over_30 = if_else(age >30, TRUE, FALSE))

## # A tibble: 21,616 x 3
##      age sex   over_30
##    <dbl> <chr> <lgl>  
##  1   34. 1     TRUE   
##  2   30. 1     FALSE  
##  3   32. 1     TRUE   
##  4   27. 1     FALSE  
##  5   36. 1     TRUE   
##  6   23. 1     FALSE  
##  7   39. 1     TRUE   
##  8   28. 1     FALSE  
##  9   28. 1     FALSE  
## 10   23. 1     FALSE  
## # ... with 21,606 more rows
…
Often data is entered and stored in a way that is not optimal for analysis and must be tidied. See vignette for detailed discussion: https://cran.r-project.org/web/packages/tidyr/vignettes/tidy-data.html

Two functions from the package tidyr are useful for changing the shape of data frames from long to wide and vice versa.

gather() takes multiple columns and collapses into key-value pairs

spread() takes a key-value pair and spreads it across multiple columns

For example if we want to summarise the count of year of last test and sex we get teh following.

hiv.data %>% 
  count(lasttestY, sex)

## # A tibble: 32 x 3
##    lasttestY sex       n
##        <dbl> <chr> <int>
##  1     1989. 0        25
##  2     1989. 1        29
##  3     1990. 0        90
##  4     1990. 1       142
##  5     1991. 0       146
##  6     1991. 1       282
##  7     1992. 0       229
##  8     1992. 1       443
##  9     1993. 0       294
## 10     1993. 1       517
## # ... with 22 more rows
…
Gather data

using gather(), we can reverse this, specifying the original column headers and ignoring lasttestY, then arranging by lasttestY to replicate the original table above.

hiv.data %>% 
  count(lasttestY, sex) %>%
  spread(key = sex, value = n) %>%
  gather(key = "sex", value = "n", -lasttestY) %>%
  arrange(lasttestY)

## # A tibble: 32 x 3
##    lasttestY sex       n
##        <dbl> <chr> <int>
##  1     1989. 0        25
##  2     1989. 1        29
##  3     1990. 0        90
##  4     1990. 1       142
##  5     1991. 0       146
##  6     1991. 1       282
##  7     1992. 0       229
##  8     1992. 1       443
##  9     1993. 0       294
## 10     1993. 1       517
## # ... with 22 more rows
…
